{
  "status": "ok",
  "total_hits": 997,
  "page": 1,
  "total_pages": 100,
  "page_size": 2,
  "articles": [
    {
      "title": "How to teach children about climate change, inspire hope and take action to change the\u00a0future",
      "author": "Anonymous",
      "published_date": "2022-01-27 19:30:00",
      "published_date_precision": "timezone unknown",
      "link": "https://example.com",
      "clean_url": "example.com",
      "excerpt": "Some children and youth find the effects of climate change are traumatic. Taking a trauma-informed approach to education can nurture resilience.",
      "summary": "Some children and youth find the effects of climate change are traumatic. Taking a trauma-informed approach to education can nurture resilience.",
      "rights": "example.com",
      "rank": 361,
      "topic": "news",
      "country": "AU",
      "language": "en",
      "authors": [
        "Anonymous"
      ],
      "media": "https://uploads.example.com/image.png",
      "is_opinion": false,
      "twitter_account": "@XaynHQ",
      "_score": 17.197401,
      "_id": "4e30f7eaa51090aa96a91fcce2dd1ade"
    },
    {
      "title": "Businesses \u2018more concerned than ever'",
      "author": "Anonymous",
      "published_date": "2022-01-23 13:01:00",
      "published_date_precision": "full",
      "link": "https://example.com",
      "clean_url": "example.com",
      "excerpt": "Australian business leaders are more concerned about climate change than ever before, with a new report finding there has been a significant shift in opinion in just eight months.",
      "summary": "Australian business leaders are more concerned about climate change than ever before, with a new report finding there has been a significant shift in opinion in just eight months.",
      "rights": "example.com",
      "rank": 570,
      "topic": "tech",
      "country": "AU",
      "language": "en",
      "authors": [
        "Anonymous"
      ],
      "media": "https://uploads.example.com/image.png",
      "is_opinion": false,
      "twitter_account": "@XaynHQ",
      "_score": 17.118832,
      "_id": "b7ecc49a15bc38bf224ae01556e52641"
    }
  ],
  "user_input": {
    "q": "\"Climate change\"",
    "search_in": [
      "title_summary"
    ],
    "lang": [
      "en"
    ],
    "not_lang": null,
    "countries": [
      "AU"
    ],
    "not_countries": null,
    "from": "2022-01-21 00:00:00",
    "to": null,
    "ranked_only": "True",
    "from_rank": null,
    "to_rank": null,
    "sort_by": "relevancy",
    "page": 1,
    "size": 2,
    "sources": null,
    "not_sources": null,
    "topic": null,
    "published_date_precision": null
  }
}
