{
  "status": "ok",
  "total_hits": 10000,
  "page": 1,
  "total_pages": 1000,
  "page_size": 4,
  "articles": [
    {
      "title": "Olympic champion Lundby laments ski jumping's weight issues",
      "author": "Anonymous",
      "published_date": "2022-01-27 13:25:42",
      "published_date_precision": "timezone unknown",
      "link": "https://example.com/a/1/",
      "clean_url": "example.com",
      "excerpt": "We use cookies. By Clicking \"OK\" or any content on this site, you agree to allow cookies to be placed. Read more in our privacy policy.",
      "summary": "FILE - Billy Demong, executive director of USA Nordic Sports, speaks during the cross country stage of the nordic combined 10km competition for placement on the 2022 U.S. Olympic team",
      "rights": "example.com",
      "rank": 6510,
      "topic": "gaming",
      "country": "US",
      "language": "en",
      "authors": [
        "Larry Lage"
      ],
      "media": "https://uploads.example.com/image1.png",
      "is_opinion": false,
      "twitter_account": null,
      "_score": null,
      "_id": "9a096d1ea8f8fdd6d780ac95c6bb0c43"
    },
    {
      "title": "Jerusalem blanketed in white after rare snowfall",
      "author": null,
      "published_date": "2022-01-27 13:24:33",
      "published_date_precision": "timezone unknown",
      "link": "https://example.com/a/2",
      "clean_url": "example.com",
      "excerpt": "We use cookies. By Clicking \"OK\" or any content on this site, you agree to allow cookies to be placed. Read more in our privacy policy.",
      "summary": "A man standing under an umbrella to shield himself from heavy rain is seen through the window of a car on the promenade along the Mediterranean Sea in Beirut",
      "rights": "example.com",
      "rank": 6510,
      "topic": "gaming",
      "country": "US",
      "language": "en",
      "authors": [],
      "media": "https://uploads.example.com/image2.png",
      "is_opinion": false,
      "twitter_account": null,
      "_score": null,
      "_id": "0251ae9f73ec12f4d3eced9c4dc9ccc8"
    },
    {
      "title": "Invasion of cats changes weather",
      "author": null,
      "published_date": "2022-01-27 13:24:33",
      "published_date_precision": "timezone unknown",
      "link": "https://example.com/a/4",
      "clean_url": "example.com",
      "excerpt": "After 5000 magic cats moved to Rome they changed the weather to be slightly cooler.",
      "summary": "A invasion of 5000 magic cats changes the weather in Rome.",
      "rank": 10,
      "topic": "gaming",
      "country": "US",
      "language": "en",
      "authors": [],
      "media": "https://uploads.example.com/image3.png",
      "is_opinion": false,
      "twitter_account": null,
      "_score": null,
      "_id": "0251ae9f73ec12f4d3eced9c4dc9ccc8"
    },
    {
      "title": "Nature about to get back at humans",
      "author": null,
      "published_date": "2022-01-27 13:24:33",
      "published_date_precision": "timezone unknown",
      "link": "https://example.com/a/4",
      "clean_url": "example.com",
      "excerpt": "A new kind of Mushroom was found all around the world which eats plastic and produces fumes toxic to humans but not most other animals.",
      "summary": "A new kind of Mushroom threatens humanity.",
      "rights": "example.com",
      "rank": 10,
      "topic": "gaming",
      "country": "US",
      "language": "en",
      "authors": [],
      "media": "https://uploads.example.com/image4.png",
      "is_opinion": false,
      "twitter_account": null,
      "_score": null,
      "_id": "0251ae9f73ec12f4d3eced9c4dc9ccc8"
    }
  ],
  "user_input": {
    "lang": [
      "en"
    ],
    "not_lang": null,
    "countries": [
      "US"
    ],
    "not_countries": null,
    "page": 1,
    "size": 4,
    "sources": null,
    "not_sources": null,
    "topic": null,
    "from": "2019-01-28 13:26:02"
  }
}
