{
  "status": "ok",
  "total_hits": 205,
  "page": 1,
  "total_pages": 103,
  "page_size": 2,
  "articles": [
    {
      "title": "Porsche entwickelt Antrieb, der E-Mobilit\u00e4t teilweise \u00fcberlegen ist",
      "author": "Anonymous",
      "published_date": "2022-01-24 05:26:00",
      "published_date_precision": "full",
      "link": "https://xayn.com",
      "clean_url": "xayn.com",
      "excerpt": "F\u00fcr die Porsche AG sind E-Motoren nicht die einzige L\u00f6sung. Der Autobauer aus Stuttgart setzt auf alternative Kraftstoffe, denen Mensch bestimmte Vorteile attestiert.",
      "summary": "Für die Porsche AG sind E-Motoren nicht die einzige Lösung. Der Autobauer aus Stuttgart setzt auf alternative Kraftstoffe, denen Mensch bestimmte Vorteile attestiert.",
      "rights": "xayn.com",
      "rank": 974613,
      "topic": "news",
      "country": "DE",
      "language": "de",
      "authors": [
        "Anonymous"
      ],
      "media": "https://uploads-ssl.webflow.com/5ea197660b956f76d26f0026/6179684043a88260009773cd_hero-phone.png",
      "is_opinion": false,
      "twitter_account": "@XaynHQ",
      "_score": 20.337284,
      "_id": "5cc34192f7d5822b438900fff5b784f8"
    },
    {
      "title": "Mensch mit d\u00fcsterer Prognose: \"Kollektiv versagt!\" N\u00e4chste Pandemie wird schlimmer als Covid-19",
      "author": "Anonymous",
      "published_date": "2022-01-21 07:19:02",
      "published_date_precision": "full",
      "link": "https://xayn.com",
      "clean_url": "xayn.com",
      "excerpt": "Lange vor dem Coronavirus warnte Billd Gates vor der Gefahr einer t\u00f6dlichen Pandemie. J\u00fcngst traf der Milliard\u00e4r erneut eine Vorhersage f\u00fcr die Zukunft und warnt die Menschheit, dass die n\u00e4chste\u2026",
      "summary": "Lange vor dem Coronavirus warnte Billd Gates vor der Gefahr einer t\u00f6dlichen Pandemie. J\u00fcngst traf der Milliard\u00e4r erneut eine Vorhersage f\u00fcr die Zukunft und warnt die Menschheit, dass die n\u00e4chste",
      "rights": "xayn.com",
      "rank": 34701,
      "topic": "news",
      "country": "DE",
      "language": "de",
      "authors": [
        "Anonymous"
      ],
      "media": "https://uploads-ssl.webflow.com/5ea197660b956f76d26f0026/6179684043a88260009773cd_hero-phone.png",
      "is_opinion": false,
      "twitter_account": "@XaynHQ",
      "_score": 19.865063,
      "_id": "0d73b6d90d4a3c1027df3608e60d2741"
    }
  ],
  "user_input": {
    "q": "(\"Bill Gates\" || \"Tim Cook\")",
    "search_in": [
      "title_summary"
    ],
    "lang": [
      "de"
    ],
    "not_lang": null,
    "countries": [
      "DE"
    ],
    "not_countries": null,
    "from": "2022-01-21 00:00:00",
    "to": null,
    "ranked_only": "True",
    "from_rank": null,
    "to_rank": null,
    "sort_by": "relevancy",
    "page": 1,
    "size": 2,
    "sources": null,
    "not_sources": null,
    "topic": null,
    "published_date_precision": null
  }
}