{
  "status": "ok",
  "total_hits": 997,
  "page": 2,
  "total_pages": 100,
  "page_size": 1,
  "articles": [
    {
      "title": "No more ski accidents",
      "author": "Anonymous",
      "published_date": "2022-01-27 19:30:00",
      "published_date_precision": "timezone unknown",
      "link": "https://example.com/b/1",
      "clean_url": "example.com",
      "excerpt": "As climate change made skiing inviable the number of accidents has been reduced by 100%",
      "summary": "As climate change made skiing inviable the number of accidents has been reduced by 100%",
      "rights": "example.com",
      "rank": 361,
      "topic": "news",
      "country": "AU",
      "language": "en",
      "authors": [
        "Anonymous"
      ],
      "media": "https://uploads.example.com/image1.png",
      "is_opinion": false,
      "twitter_account": "@XaynHQ",
      "_score": 17.197401,
      "_id": "4e30f7eaa51090aa96a91fcce2dd1ade"
    }
  ],
  "user_input": {
    "q": "\"Climate change\"",
    "search_in": [
      "title_summary"
    ],
    "lang": [
      "en"
    ],
    "not_lang": null,
    "countries": [
      "AU"
    ],
    "not_countries": null,
    "from": "2022-01-21 00:00:00",
    "to": null,
    "ranked_only": "True",
    "from_rank": null,
    "to_rank": null,
    "sort_by": "relevancy",
    "page": 1,
    "size": 4,
    "sources": null,
    "not_sources": null,
    "topic": null,
    "published_date_precision": null
  }
}
